<!-- Generator: Adobe Illustrator 21.0.2, SVG Export Plug-In  -->
<svg version="1.1"
	 xmlns="http://www.w3.org/2000/svg" xmlns:xlink="http://www.w3.org/1999/xlink" xmlns:a="http://ns.adobe.com/AdobeSVGViewerExtensions/3.0/"
	 x="0px" y="0px" width="20px" height="20px" viewBox="0 0 20 20" style="enable-background:new 0 0 20 20;" xml:space="preserve">
<defs>
</defs>
<path d="M20,15l-4,5l-4-5h3V5H9L7.4,3H15h2v2v10H20z M11,15H5V5h3L4,0L0,5h3v10v2h2h7.6L11,15z"/>
</svg>
