{
  "fonts/akrobat-black-webfont.eot": "fonts/akrobat-black-webfont.eot",
  "fonts/akrobat-black-webfont.svg": "fonts/akrobat-black-webfont.svg",
  "fonts/akrobat-black-webfont.ttf": "fonts/akrobat-black-webfont.ttf",
  "fonts/akrobat-black-webfont.woff": "fonts/akrobat-black-webfont.woff",
  "fonts/akrobat-bold-webfont.eot": "fonts/akrobat-bold-webfont.eot",
  "fonts/akrobat-bold-webfont.svg": "fonts/akrobat-bold-webfont.svg",
  "fonts/akrobat-bold-webfont.ttf": "fonts/akrobat-bold-webfont.ttf",
  "fonts/akrobat-bold-webfont.woff": "fonts/akrobat-bold-webfont.woff",
  "fonts/akrobat-extrabold-webfont.eot": "fonts/akrobat-extrabold-webfont.eot",
  "fonts/akrobat-extrabold-webfont.svg": "fonts/akrobat-extrabold-webfont.svg",
  "fonts/akrobat-extrabold-webfont.ttf": "fonts/akrobat-extrabold-webfont.ttf",
  "fonts/akrobat-extrabold-webfont.woff": "fonts/akrobat-extrabold-webfont.woff",
  "fonts/akrobat-extralight-webfont.eot": "fonts/akrobat-extralight-webfont.eot",
  "fonts/akrobat-extralight-webfont.svg": "fonts/akrobat-extralight-webfont.svg",
  "fonts/akrobat-extralight-webfont.ttf": "fonts/akrobat-extralight-webfont.ttf",
  "fonts/akrobat-extralight-webfont.woff": "fonts/akrobat-extralight-webfont.woff",
  "fonts/akrobat-light-webfont.eot": "fonts/akrobat-light-webfont.eot",
  "fonts/akrobat-light-webfont.svg": "fonts/akrobat-light-webfont.svg",
  "fonts/akrobat-light-webfont.ttf": "fonts/akrobat-light-webfont.ttf",
  "fonts/akrobat-light-webfont.woff": "fonts/akrobat-light-webfont.woff",
  "fonts/akrobat-regular-webfont.eot": "fonts/akrobat-regular-webfont.eot",
  "fonts/akrobat-regular-webfont.svg": "fonts/akrobat-regular-webfont.svg",
  "fonts/akrobat-regular-webfont.ttf": "fonts/akrobat-regular-webfont.ttf",
  "fonts/akrobat-regular-webfont.woff": "fonts/akrobat-regular-webfont.woff",
  "fonts/akrobat-semibold-webfont.eot": "fonts/akrobat-semibold-webfont.eot",
  "fonts/akrobat-semibold-webfont.svg": "fonts/akrobat-semibold-webfont.svg",
  "fonts/akrobat-semibold-webfont.ttf": "fonts/akrobat-semibold-webfont.ttf",
  "fonts/akrobat-semibold-webfont.woff": "fonts/akrobat-semibold-webfont.woff",
  "fonts/akrobat-thin-webfont.eot": "fonts/akrobat-thin-webfont.eot",
  "fonts/akrobat-thin-webfont.svg": "fonts/akrobat-thin-webfont.svg",
  "fonts/akrobat-thin-webfont.ttf": "fonts/akrobat-thin-webfont.ttf",
  "fonts/akrobat-thin-webfont.woff": "fonts/akrobat-thin-webfont.woff",
  "fonts/lg.eot": "fonts/lg.eot",
  "fonts/lg.eot?n1z373": "fonts/lg.eot",
  "fonts/lg.svg?n1z373": "fonts/lg.svg",
  "fonts/lg.ttf?n1z373": "fonts/lg.ttf",
  "fonts/lg.woff?n1z373": "fonts/lg.woff",
  "fonts/logo.svg": "fonts/logo.svg",
  "fonts/spiral-icons.eot": "fonts/spiral-icons.eot",
  "fonts/spiral-icons.svg": "fonts/spiral-icons.svg",
  "fonts/spiral-icons.ttf": "fonts/spiral-icons.ttf",
  "fonts/spiral-icons.woff": "fonts/spiral-icons.woff",
  "images/loading.gif": "images/loading.gif",
  "images/video-play.png": "images/video-play.png",
  "images/vimeo-play.png": "images/vimeo-play.png",
  "images/youtube-play.png": "images/youtube-play.png",
  "styles/admin.css": "styles/admin.2fa7cc10ea90c2ed250f.css",
  "scripts/admin.js": "scripts/admin.2fa7cc10ea90c2ed250f.js",
  "sourcemaps/admin.map": "sourcemaps/admin.2fa7cc10ea90c2ed250f.map",
  "scripts/customizer.js": "scripts/customizer.f226d73ae15146514028.js",
  "styles/editor.css": "styles/editor.48804c8c06615888a15f.css",
  "scripts/editor.js": "scripts/editor.48804c8c06615888a15f.js",
  "sourcemaps/editor.map": "sourcemaps/editor.48804c8c06615888a15f.map",
  "styles/login.css": "styles/login.69d8ca5c9b82dce725a8.css",
  "scripts/login.js": "scripts/login.69d8ca5c9b82dce725a8.js",
  "sourcemaps/login.map": "sourcemaps/login.69d8ca5c9b82dce725a8.map",
  "styles/main.css": "styles/main.e70e74603c87249d5255.css",
  "scripts/main.js": "scripts/main.e70e74603c87249d5255.js",
  "sourcemaps/main.map": "sourcemaps/main.e70e74603c87249d5255.map",
  "scripts/manifest.js": "scripts/manifest.f79de07ad244f883b227.js",
  "styles/vendor.css": "styles/vendor.07c4d8d033ebc59fa9ff.css",
  "scripts/vendor.js": "scripts/vendor.07c4d8d033ebc59fa9ff.js",
  "sourcemaps/vendor.map": "sourcemaps/vendor.07c4d8d033ebc59fa9ff.map"
}