<svg id="6a90936b-be1e-4d90-82f2-973e673c1c8c" data-name="&lt;Layer&gt;" xmlns="http://www.w3.org/2000/svg" viewBox="0 0 152 32">
  <title>logo_footer</title>
  <path d="M146.9,27.8h-.3l-1-.3-1.5-.4-2-.4L137,26a62.6,62.6,0,0,0-6.4-.2h-4.1l-.7-.4a2,2,0,0,1-.4-.8,7.4,7.4,0,0,1-.2-1.1c-.1-.8-.1-1.6-.1-2.3s0-.7,0-1a3,3,0,0,1,2.9-3l17.4-.6h0c.7.1-.7,3-.7,3l5.9-3.2.4-.2-.4-.2-5.9-3.2s1.4,2.9.7,3h0L128,14.9a3,3,0,0,1-2.9-3c0-.4,0-.7,0-1s0-1.5.1-2.3a7.4,7.4,0,0,1,.2-1.1,2,2,0,0,1,.4-.8l.7-.4h4.1A62.6,62.6,0,0,0,137,6l5.1-.7,2-.4,1.5-.4,1-.3h.3L141,1s1.6,2.9.8,3l-5,.5a60.7,60.7,0,0,1-6.2-.1l-3-.2H126l-.9.3-.9.6a4.1,4.1,0,0,0-.9,1.6,9.5,9.5,0,0,0-.3,1.4c-.1.9-.2,1.7-.3,2.5s-.1,1.1-.1,1.7a2.4,2.4,0,0,1-2.3,2.3h-.5l-5.6.2-8,.2H40.4l-10.5-.2-9.4-.2L6.4,14.4A8,8,0,0,0,1,16a8,8,0,0,0,5.4,1.6l14.1-.3,9.4-.2L40.4,17h65.7l8,.2,5.6.2h.5a2.4,2.4,0,0,1,2.3,2.3c0,.6.1,1.2.1,1.7s.1,1.6.3,2.5a9.5,9.5,0,0,0,.3,1.4,4.1,4.1,0,0,0,.9,1.6l.9.6.9.3h1.6l3-.2a60.7,60.7,0,0,1,6.2-.1l5,.5c.7.1-.8,3-.8,3Z"/>
  <g>
    <path d="M15,4.7l-.2,1.7a1.5,1.5,0,0,0-1.1-.3H12.3l-1.4,5.6a2.7,2.7,0,0,0-.1,1.4H7.1a3.6,3.6,0,0,0,.6-1.4L9.1,6.1H7.6a2.3,2.3,0,0,0-1.3.3L7,4.7Z"/>
    <path d="M18,9.4l-.5,2.2a2.8,2.8,0,0,0-.1,1.4H13.6a3.6,3.6,0,0,0,.6-1.4l1.4-5.5a2,2,0,0,0,0-1.4h6.9c1.5,0,2.1.4,1.7,1.9l-.4,1.6c-.3,1.2-.9,1.3-1.6,1.4l.6,2.4a4.6,4.6,0,0,0,.4,1.3H19.6L19,9.4ZM18.4,8h1.8c.4,0,.5-.1.6-.5l.3-1c.1-.4,0-.5-.4-.5H18.9Z"/>
    <path d="M24.1,13.1a3.6,3.6,0,0,0,.6-1.4l1.4-5.5a2.7,2.7,0,0,0,.1-1.4h3.7a3.6,3.6,0,0,0-.6,1.4l-1.4,5.5a2.7,2.7,0,0,0-.1,1.4Z"/>
    <path d="M31,6.1a2.7,2.7,0,0,0,.1-1.4h6.5c1.8,0,2.2.7,1.8,2.4l-.9,3.6a2.7,2.7,0,0,1-3,2.4H29a3.6,3.6,0,0,0,.6-1.4Zm1.8,5.6h1.7c.5,0,.6-.1.8-.7l1.1-4.3c.1-.6.1-.7-.4-.7H34.2Z"/>
    <path d="M45.6,11.7a4.6,4.6,0,0,0,1.5-.2l-.7,1.6H39a3.6,3.6,0,0,0,.6-1.4L41,6.1a2.7,2.7,0,0,0,.1-1.4h7.3V6.3a3.8,3.8,0,0,0-1.4-.2H44.2l-.5,2H46a4.7,4.7,0,0,0,1.5-.2L47,9.7a3.7,3.7,0,0,0-1.4-.2H43.4l-.6,2.3Z"/>
    <path d="M50.7,6.1h0l-1.4,5.5c-.2.9-.2,1.1-.1,1.5h-2a2.6,2.6,0,0,0,.7-1.5l1.3-5.4c.2-.9.2-1.1.1-1.5h4.5l1.7,6.9h0l1.3-5.4c.2-.9.2-1.1.1-1.5h2a2.6,2.6,0,0,0-.7,1.5l-1.7,6.9H52.4Z"/>
    <path d="M67.6,4.7l-.2,1.7a1.5,1.5,0,0,0-1.1-.3H64.9l-1.4,5.6a2.8,2.8,0,0,0-.1,1.4H59.7a3.6,3.6,0,0,0,.6-1.4l1.4-5.6H60.2a2.3,2.3,0,0,0-1.3.3l.7-1.7Z"/>
    <path d="M78,11.7a3.5,3.5,0,0,0,1.4-.3l-.7,1.7H71.5a3.6,3.6,0,0,0,.6-1.4l1.4-5.5a2.7,2.7,0,0,0,.1-1.4h3.7a3.6,3.6,0,0,0-.6,1.4l-1.4,5.6Z"/>
    <path d="M82.2,10.8,81.3,12l-.2.5a.8.8,0,0,0,0,.6H78.7a9.3,9.3,0,0,0,1.3-1.5l4.7-6.4-.3-.5h3.8l1.2,7.3a3.1,3.1,0,0,0,.4,1.2H85.7c.2-.3.3-.4.3-.6a1.7,1.7,0,0,0,0-.6l-.2-1.1Zm3.5-1.4-.5-2.8-2,2.8Z"/>
    <path d="M92.1,6.1a2.7,2.7,0,0,0,.1-1.4h6.9c1.8,0,2,.7,1.8,1.7l-.2,1c-.3,1.1-1,1.3-2.2,1.3h0c1.4.2,1.7.3,1.5,1.2l-.3,1.4c-.3,1-.8,1.7-2.6,1.7H90.1a3.6,3.6,0,0,0,.6-1.4Zm1.8,5.6h1.9c.4,0,.5-.1.6-.5l.3-1.3c.1-.4,0-.5-.4-.5H94.5ZM94.8,8h1.9c.4,0,.5-.1.6-.5l.3-1c.1-.4,0-.5-.4-.5H95.3Z"/>
    <path d="M101.7,7.1c.5-1.8,1.4-2.5,2.7-2.5h4.8c1.4,0,2,.7,1.5,2.5l-.9,3.5c-.5,1.8-1.4,2.5-2.7,2.5h-4.8c-1.4,0-2-.7-1.5-2.5Zm2.2,4c-.1.4.1.5.5.5h1.4c.4,0,.7-.1.8-.5l1.1-4.6c.1-.4-.1-.5-.5-.5h-1.4c-.4,0-.7.1-.8.5Z"/>
    <path d="M114.7,9.4l-.5,2.2a2.7,2.7,0,0,0-.1,1.4h-3.7a3.6,3.6,0,0,0,.6-1.4l1.4-5.5a2,2,0,0,0,0-1.4h6.9c1.5,0,2.1.4,1.7,1.9l-.4,1.6c-.3,1.2-.9,1.3-1.6,1.4l.6,2.4a4.6,4.6,0,0,0,.4,1.3h-3.6l-.6-3.7Zm.3-1.4h1.8c.4,0,.5-.1.6-.5l.3-1c.1-.4,0-.5-.4-.5h-1.8Z"/>
  </g>
</svg>
