<svg id="eb1eca6a-49ac-4197-b26c-f6d304ed2050" data-name="&lt;Layer&gt;" xmlns="http://www.w3.org/2000/svg" viewBox="0 0 32 32">
  <title>menu</title>
  <path d="M16,1A15,15,0,1,0,31,16,15,15,0,0,0,16,1Zm0,27.5A12.5,12.5,0,1,1,28.5,16,12.5,12.5,0,0,1,16,28.5Z"/>
  <path d="M9,15H23v3H9Zm0-5v3H23V10ZM9,23H23V20H9Z"/>
</svg>
