<svg id="2ac85324-437b-4860-8eae-96f2201c11dc" data-name="&lt;Layer&gt;" xmlns="http://www.w3.org/2000/svg" viewBox="0 0 32 32">
  <title>next</title>
  <polygon points="17.6 16 10.2 23.4 12.3 25.5 19.7 18.1 21.8 16 19.7 13.9 12.3 6.5 10.2 8.6 17.6 16"/>
</svg>
