<svg id="f62ff3ec-74fd-42a8-bd44-ca2fca916490" data-name="&lt;Layer&gt;" xmlns="http://www.w3.org/2000/svg" viewBox="0 0 32 32">
  <title>sidebar_close</title>
  <path d="M10.2,16a2.5,2.5,0,1,1,2.5,2.5A2.5,2.5,0,0,1,10.2,16Z"/>
  <polygon points="17.6 16 10.2 8.6 12.3 6.5 19.7 13.9 21.8 16 19.7 18.1 12.3 25.5 10.2 23.4 17.6 16"/>
</svg>
